{
    "minusTitle": {
        "message": "Neħħi website",
        "description": "Minus icon hover text"
    },
    "plusTitle": {
        "message": "Żid websajt",
        "description": "Plus icon hover text"
    },
    "currentURLtitle": {
        "message": "Żid il-websajt miftuħa bħalissa",
        "description": "current website add button title"
    },
    "addCurrentError": {
        "message": "Inti ma tistax iżżid din il-websajt arblu",
        "description": "current website add button error"
    },
    "addCurrent": {
        "message": "Żid websajt kurrenti",
        "description": "current website add button"
    },
    "rateMozilla": {
        "message": "Rata fuq Mozilla",
        "description": "star rating bottom"
    },
    "openTitle": {
        "message": "Iftaħ il-websajts kollha",
        "description": "open button title"
    },
    "deleteTitle": {
        "message": "Ħassar websajts kollha",
        "description": "reset button title"
    },
    "open": {
        "message": "Miftuħ",
        "description": "open button"
    },
    "reset": {
        "message": "Issettjar mill-ġdid",
        "description": "reset button"
    },
    "invalidURL": {
        "message": "Url invalidu!",
        "description": "invalid url error message"
    },
    "openLater": {
        "message": "Ikteb il-websajts inti tixtieq li tiftaħ aktar tard",
        "description": "open later label"
    },
    "goToMozilla": {
        "message": "Mur għal Mozilla",
        "description": "Go to Mozilla title"
    },
    "pinTabs": {
        "message": "Tabs tal-Pin",
        "description": "pin tabs label"
    },
    "addToATO": {
        "message": "Żid Mal-Auto Tab Opener",
        "description": "ATO button in context menu"
    },
    "backupDeleteSuccess": {
        "message": "Websajts kollha ġew imħassra b'suċċess!",
        "description": "options page delete success message"
    },
    "backupSuccess": {
        "message": "Lura tiegħek ġiet restawrata b'suċċess!",
        "description": "backup success message"
    },
    "emptyBackup": {
        "message": "Iż-żona ta'test ta'riżerva m'għandhiex tkun vojta!",
        "description": "alert text if the user tries to import an empty backup"
    },
    "insertBackup": {
        "message": "Daħħal il-kontenut tal-fajl ta'riżerva tiegħek hawnhekk…",
        "description": "placeholder of URL text area in addon options"
    },
    "pinTab": {
        "message": "Sra tab",
        "description": "title of pin tab icon"
    },
    "deleteButtonTitle": {
        "message": "Neħħi websajts kollha",
        "description": "delete URLs button title options page"
    },
    "saveButtonTitle": {
        "message": "Salv l-websajts ta'hawn fuq",
        "description": "restore URLs button title options page"
    },
    "deleteAll": {
        "message": "Ħassar kollha",
        "description": "delete all button options page"
    },
    "restoreBackup": {
        "message": "Ir-Restawr Tal-Għajnuna",
        "description": "restore URLs options page"
    },
    "optionsBackup": {
        "message": "Ikkopja L-URLs li ġejjin għal fajl ta'sostenn. Jirrestawraw appoġġ tiegħek billi jikkopja l-kontenut tal-fajl ta'sostenn tiegħek għall-qasam test u mbagħad tikklikkja fuq \"Restore URLs\".",
        "description": "backup paragraph options page"
    },
    "description": {
        "message": "Auto Tab Opener ihallik tiftaħ websajts multipli f'daqqa bi klikk waħda.",
        "description": "the addon's decription"
    }
}
