{
    "openLater": {
        "message": "Introduceți site-urile web pe care doriți să le deschideți mai târziu",
        "description": "open later label"
    },
    "description": {
        "message": "Auto Tab Opener vă permite să deschideți mai multe site-uri web simultan cu un singur clic.",
        "description": "the addon's decription"
    },
    "openTitle": {
        "message": "Deschide toate site-urile web",
        "description": "open button title"
    },
    "invalidURL": {
        "message": "URL nevalid!",
        "description": "invalid url error message"
    },
    "pinTabs": {
        "message": "File de pin",
        "description": "pin tabs label"
    },
    "reset": {
        "message": "Resetare",
        "description": "reset button"
    },
    "open": {
        "message": "Deschis",
        "description": "open button"
    },
    "deleteTitle": {
        "message": "Ștergeți toate site-urile",
        "description": "reset button title"
    },
    "addCurrentError": {
        "message": "Nu poți adăuga acest site 😕",
        "description": "current website add button error"
    },
    "addCurrent": {
        "message": "Adăugați site-ul actual",
        "description": "current website add button"
    },
    "rateMozilla": {
        "message": "Evaluați-l pe Mozilla",
        "description": "star rating bottom"
    },
    "optionsBackup": {
        "message": "Copiați următoarele URL-uri într-un fișier de rezervă. Restaurați copia de rezervă copiind conținutul fișierului de rezervă în zona de text și apoi făcând clic pe \"Restore URLs\".",
        "description": "backup paragraph options page"
    },
    "goToMozilla": {
        "message": "Mergeți la Mozilla",
        "description": "Go to Mozilla title"
    },
    "minusTitle": {
        "message": "Scoateți site ul",
        "description": "Minus icon hover text"
    },
    "plusTitle": {
        "message": "Adăugați site ul",
        "description": "Plus icon hover text"
    },
    "saveButtonTitle": {
        "message": "Salvați site-urile de mai sus",
        "description": "restore URLs button title options page"
    },
    "deleteAll": {
        "message": "Ștergeți tot",
        "description": "delete all button options page"
    },
    "restoreBackup": {
        "message": "Restaurare copie de rezervă",
        "description": "restore URLs options page"
    },
    "backupSuccess": {
        "message": "Copie de rezervă a fost restaurată cu succes!",
        "description": "backup success message"
    },
    "emptyBackup": {
        "message": "Zona de text de rezervă nu trebuie să fie goală!",
        "description": "alert text if the user tries to import an empty backup"
    },
    "insertBackup": {
        "message": "Introduceți aici conținutul fișierului de rezervă…",
        "description": "placeholder of URL text area in addon options"
    },
    "backupDeleteSuccess": {
        "message": "Toate site-urile au fost șterse cu succes!",
        "description": "options page delete success message"
    },
    "pinTab": {
        "message": "Filet cu pin",
        "description": "title of pin tab icon"
    },
    "deleteButtonTitle": {
        "message": "Eliminați toate site-urile web",
        "description": "delete URLs button title options page"
    },
    "currentURLtitle": {
        "message": "Adăugați site-ul web deschis în prezent",
        "description": "current website add button title"
    },
    "addToATO": {
        "message": "Adaugă la Auto Tab Opener",
        "description": "ATO button in context menu"
    }
}
