{
    "openLater": {
        "message": "Wprowadź strony internetowe, które chcesz otworzyć później",
        "description": "open later label"
    },
    "invalidURL": {
        "message": "Nieprawidłowy URL!",
        "description": "invalid url error message"
    },
    "pinTabs": {
        "message": "Wypustki na kołki",
        "description": "pin tabs label"
    },
    "open": {
        "message": "Otwórz",
        "description": "open button"
    },
    "deleteTitle": {
        "message": "Usuń wszystkie witryny",
        "description": "reset button title"
    },
    "openTitle": {
        "message": "Otwórz wszystkie witryny",
        "description": "open button title"
    },
    "rateMozilla": {
        "message": "Oceń w serwisie Mozilla",
        "description": "star rating bottom"
    },
    "addCurrentError": {
        "message": "Nie można dodać tej strony 😕",
        "description": "current website add button error"
    },
    "currentURLtitle": {
        "message": "Dodaj aktualnie otwartą stronę",
        "description": "current website add button title"
    },
    "plusTitle": {
        "message": "Dodaj witrynę",
        "description": "Plus icon hover text"
    },
    "minusTitle": {
        "message": "Usuń stronę",
        "description": "Minus icon hover text"
    },
    "backupDeleteSuccess": {
        "message": "Wszystkie witryny zostały pomyślnie usunięte!",
        "description": "options page delete success message"
    },
    "backupSuccess": {
        "message": "Kopia zapasowa została przywrócona pomyślnie!",
        "description": "backup success message"
    },
    "emptyBackup": {
        "message": "Obszar tekstowy kopii zapasowej nie może być pusty!",
        "description": "alert text if the user tries to import an empty backup"
    },
    "insertBackup": {
        "message": "W tym miejscu wpisz zawartość pliku kopii zapasowej…",
        "description": "placeholder of URL text area in addon options"
    },
    "optionsBackup": {
        "message": "Skopiuj poniższe adresy URL do pliku kopii zapasowej. Przywróć kopię zapasową, kopiując zawartość pliku kopii zapasowej do obszaru tekstowego, a następnie klikając przycisk \"Przywróć adresy URL\".",
        "description": "backup paragraph options page"
    },
    "pinTab": {
        "message": "Zakładka kołka",
        "description": "title of pin tab icon"
    },
    "deleteButtonTitle": {
        "message": "Usuń wszystkie witryny",
        "description": "delete URLs button title options page"
    },
    "saveButtonTitle": {
        "message": "Zapisz powyższe strony",
        "description": "restore URLs button title options page"
    },
    "deleteAll": {
        "message": "Usuń wszystkie",
        "description": "delete all button options page"
    },
    "restoreBackup": {
        "message": "Odtwórz kopię zapasową",
        "description": "restore URLs options page"
    },
    "goToMozilla": {
        "message": "Przejdź do strony Mozilla",
        "description": "Go to Mozilla title"
    },
    "description": {
        "message": "Program Auto Tab Opener umożliwia otwieranie wielu stron internetowych jednocześnie za pomocą jednego kliknięcia.",
        "description": "the addon's decription"
    },
    "reset": {
        "message": "Resetuj",
        "description": "reset button"
    },
    "addCurrent": {
        "message": "Dodaj aktualną stronę internetową",
        "description": "current website add button"
    },
    "addToATO": {
        "message": "Dodaj do Auto Tab Opener",
        "description": "ATO button in context menu"
    }
}
