{
    "openLater": {
        "message": "Introduza os websites que pretende abrir mais tarde",
        "description": "open later label"
    },
    "invalidURL": {
        "message": "URL inválido!",
        "description": "invalid url error message"
    },
    "pinTabs": {
        "message": "Separadores de pinos",
        "description": "pin tabs label"
    },
    "reset": {
        "message": "Repor",
        "description": "reset button"
    },
    "open": {
        "message": "Aberto",
        "description": "open button"
    },
    "minusTitle": {
        "message": "Remover página web",
        "description": "Minus icon hover text"
    },
    "plusTitle": {
        "message": "Adicionar sítio web",
        "description": "Plus icon hover text"
    },
    "currentURLtitle": {
        "message": "Adicionar o website actualmente aberto",
        "description": "current website add button title"
    },
    "addCurrentError": {
        "message": "Não pode adicionar este website 😕",
        "description": "current website add button error"
    },
    "addCurrent": {
        "message": "Acrescentar site actual",
        "description": "current website add button"
    },
    "openTitle": {
        "message": "Abrir todos os sítios web",
        "description": "open button title"
    },
    "rateMozilla": {
        "message": "Avalie-o em Mozilla",
        "description": "star rating bottom"
    },
    "pinTab": {
        "message": "Aba de pino",
        "description": "title of pin tab icon"
    },
    "deleteButtonTitle": {
        "message": "Remover todos os websites",
        "description": "delete URLs button title options page"
    },
    "saveButtonTitle": {
        "message": "Salvar os sites acima referidos",
        "description": "restore URLs button title options page"
    },
    "deleteAll": {
        "message": "Apagar tudo",
        "description": "delete all button options page"
    },
    "restoreBackup": {
        "message": "Restaurar Backup",
        "description": "restore URLs options page"
    },
    "optionsBackup": {
        "message": "Copiar os seguintes URLs para um ficheiro de cópia de segurança. Restaure a sua cópia de segurança copiando o conteúdo do seu ficheiro de cópia de segurança para a área de texto e depois clicando em \"Restaurar URLs\".",
        "description": "backup paragraph options page"
    },
    "goToMozilla": {
        "message": "Ir para Mozilla",
        "description": "Go to Mozilla title"
    },
    "backupDeleteSuccess": {
        "message": "Todos os websites foram eliminados com sucesso!",
        "description": "options page delete success message"
    },
    "backupSuccess": {
        "message": "O seu backup foi restaurado com sucesso!",
        "description": "backup success message"
    },
    "emptyBackup": {
        "message": "A área de texto de apoio não deve estar vazia!",
        "description": "alert text if the user tries to import an empty backup"
    },
    "insertBackup": {
        "message": "Insira aqui o conteúdo do seu ficheiro de cópia de segurança…",
        "description": "placeholder of URL text area in addon options"
    },
    "description": {
        "message": "O Auto Tab Opener permite-lhe abrir vários websites de uma só vez com um clique.",
        "description": "the addon's decription"
    },
    "deleteTitle": {
        "message": "Eliminar todos os sítios Web",
        "description": "reset button title"
    },
    "addToATO": {
        "message": "Adicionar ao Auto Tab Opener",
        "description": "ATO button in context menu"
    }
}
