{
    "deleteButtonTitle": {
        "message": "Kuhaa ang tanan nga websites",
        "description": "delete URLs button title options page"
    },
    "saveButtonTitle": {
        "message": "Luwasa ang mga sa ibabaw website",
        "description": "restore URLs button title options page"
    },
    "deleteAll": {
        "message": "Panas ang tanan nga",
        "description": "delete all button options page"
    },
    "restoreBackup": {
        "message": "Iuli Tabang",
        "description": "restore URLs options page"
    },
    "minusTitle": {
        "message": "Kuhaa website",
        "description": "Minus icon hover text"
    },
    "currentURLtitle": {
        "message": "Idugang ang karon bukas website",
        "description": "current website add button title"
    },
    "addCurrentError": {
        "message": "Ikaw dili makadugang niini nga website 😕",
        "description": "current website add button error"
    },
    "addCurrent": {
        "message": "Add kasamtangan nga website",
        "description": "current website add button"
    },
    "rateMozilla": {
        "message": "Rate kini sa ibabaw sa Mozilla",
        "description": "star rating bottom"
    },
    "goToMozilla": {
        "message": "Adto sa Mozilla",
        "description": "Go to Mozilla title"
    },
    "description": {
        "message": "Auto Tab Opener nagtugot kaninyo sa pag-abli sa daghang mga website sa makausa sa usa ka click.",
        "description": "the addon's decription"
    },
    "openLater": {
        "message": "Pagsulod sa mga website nga imong gusto sa pag-abli sa ulahi",
        "description": "open later label"
    },
    "invalidURL": {
        "message": "Imbalido URL!",
        "description": "invalid url error message"
    },
    "pinTabs": {
        "message": "Mga pin nga tab",
        "description": "pin tabs label"
    },
    "reset": {
        "message": "I-reset",
        "description": "reset button"
    },
    "deleteTitle": {
        "message": "Panas ang tanan nga mga websites",
        "description": "reset button title"
    },
    "openTitle": {
        "message": "Ablihi ang tanan nga mga websites",
        "description": "open button title"
    },
    "open": {
        "message": "Ablihi",
        "description": "open button"
    },
    "pinTab": {
        "message": "Pin nga tab",
        "description": "title of pin tab icon"
    },
    "addToATO": {
        "message": "Idugang sa Auto Tab Opener",
        "description": "ATO button in context menu"
    },
    "backupDeleteSuccess": {
        "message": "Ang tanan nga mga websites nga thread malampuson!",
        "description": "options page delete success message"
    },
    "backupSuccess": {
        "message": "Ang imong tabang nga gipahiuli malampuson!",
        "description": "backup success message"
    },
    "emptyBackup": {
        "message": "Ang tabang text nga dapit kinahanglan nga dili nga walay sulod nga!",
        "description": "alert text if the user tries to import an empty backup"
    },
    "insertBackup": {
        "message": "Sal-ot ang mga sulod sa imong tabang file dinhi…",
        "description": "placeholder of URL text area in addon options"
    },
    "plusTitle": {
        "message": "Idugang ang website",
        "description": "Plus icon hover text"
    },
    "optionsBackup": {
        "message": "Kopyaha ang mosunod nga Mga Url ngadto sa usa ka tabang file. Iuli sa imong tabang pinaagi sa pagkopya sa sulod sa imong tabang file sa teksto nga dapit ug unya pagklik sa \"Iuli Url\".",
        "description": "backup paragraph options page"
    }
}
