{
    "description": {
        "message": "Hinahayaan ka ng Auto Tab Opener na magbukas ng maraming website nang sabay-sabay sa isang click.",
        "description": "the addon's decription"
    },
    "openLater": {
        "message": "Ipasok ang mga website na gusto mong buksan sa ibang pagkakataon",
        "description": "open later label"
    },
    "invalidURL": {
        "message": "Di-wastong URL!",
        "description": "invalid url error message"
    },
    "pinTabs": {
        "message": "Pin mga tab",
        "description": "pin tabs label"
    },
    "reset": {
        "message": "I-reset",
        "description": "reset button"
    },
    "openTitle": {
        "message": "Buksan ang lahat ng mga website",
        "description": "open button title"
    },
    "rateMozilla": {
        "message": "I-rate ito sa Mozilla",
        "description": "star rating bottom"
    },
    "addCurrent": {
        "message": "Magdagdag ng kasalukuyang website",
        "description": "current website add button"
    },
    "currentURLtitle": {
        "message": "Idagdag ang kasalukuyang bukas na website",
        "description": "current website add button title"
    },
    "plusTitle": {
        "message": "Magdagdag ng website",
        "description": "Plus icon hover text"
    },
    "minusTitle": {
        "message": "Alisin ang website",
        "description": "Minus icon hover text"
    },
    "goToMozilla": {
        "message": "Pumunta sa Mozilla",
        "description": "Go to Mozilla title"
    },
    "restoreBackup": {
        "message": "Ibalik ang Backup",
        "description": "restore URLs options page"
    },
    "deleteAll": {
        "message": "Tanggalin ang lahat",
        "description": "delete all button options page"
    },
    "pinTab": {
        "message": "I-pin ang tab",
        "description": "title of pin tab icon"
    },
    "insertBackup": {
        "message": "Ipasok ang nilalaman ng iyong backup na file dito…",
        "description": "placeholder of URL text area in addon options"
    },
    "emptyBackup": {
        "message": "Hindi dapat walang laman ang backup na text area!",
        "description": "alert text if the user tries to import an empty backup"
    },
    "backupSuccess": {
        "message": "Ang iyong backup ay matagumpay na naibalik!",
        "description": "backup success message"
    },
    "backupDeleteSuccess": {
        "message": "Ang lahat ng mga website ay matagumpay na natanggal!",
        "description": "options page delete success message"
    },
    "addToATO": {
        "message": "Idagdag sa Auto Tab Opener",
        "description": "ATO button in context menu"
    },
    "saveButtonTitle": {
        "message": "I-save ang mga website sa itaas",
        "description": "restore URLs button title options page"
    },
    "deleteButtonTitle": {
        "message": "Alisin ang lahat ng mga website",
        "description": "delete URLs button title options page"
    },
    "open": {
        "message": "Bukas",
        "description": "open button"
    },
    "deleteTitle": {
        "message": "Tanggalin ang lahat ng mga website",
        "description": "reset button title"
    },
    "addCurrentError": {
        "message": "Hindi mo maaaring idagdag ang website na ito 😕",
        "description": "current website add button error"
    },
    "optionsBackup": {
        "message": "Kopyahin ang mga sumusunod na URL sa isang backup na file. Ibalik ang iyong backup sa pamamagitan ng pagkopya ng nilalaman ng iyong backup na file sa lugar ng teksto at pagkatapos ay pag-click sa \"Ibalik ang Mga URL\".",
        "description": "backup paragraph options page"
    }
}
