{
    "addToATO": {
        "message": "Přidat do automatického otevírání karet",
        "description": "ATO button in context menu"
    },
    "backupDeleteSuccess": {
        "message": "Všechny webové stránky byly úspěšně odstraněny!",
        "description": "options page delete success message"
    },
    "backupSuccess": {
        "message": "Vaše záloha byla úspěšně obnovena!",
        "description": "backup success message"
    },
    "emptyBackup": {
        "message": "Záložní textová oblast nesmí být prázdná!",
        "description": "alert text if the user tries to import an empty backup"
    },
    "insertBackup": {
        "message": "Zde vložte obsah záložního souboru…",
        "description": "placeholder of URL text area in addon options"
    },
    "pinTab": {
        "message": "Karta kolíku",
        "description": "title of pin tab icon"
    },
    "deleteButtonTitle": {
        "message": "Odstranit všechny webové stránky",
        "description": "delete URLs button title options page"
    },
    "saveButtonTitle": {
        "message": "Uložit výše uvedené webové stránky",
        "description": "restore URLs button title options page"
    },
    "deleteAll": {
        "message": "Odstranit vše",
        "description": "delete all button options page"
    },
    "restoreBackup": {
        "message": "Obnovení zálohy",
        "description": "restore URLs options page"
    },
    "optionsBackup": {
        "message": "Zkopírujte následující adresy URL do záložního souboru. Obnovte zálohu zkopírováním obsahu záložního souboru do textové oblasti a kliknutím na \"Obnovit adresy URL\".",
        "description": "backup paragraph options page"
    },
    "goToMozilla": {
        "message": "Přejít na Mozilla",
        "description": "Go to Mozilla title"
    },
    "minusTitle": {
        "message": "Odstranění webových stránek",
        "description": "Minus icon hover text"
    },
    "plusTitle": {
        "message": "Přidat webové stránky",
        "description": "Plus icon hover text"
    },
    "currentURLtitle": {
        "message": "Přidání právě otevřené webové stránky",
        "description": "current website add button title"
    },
    "addCurrentError": {
        "message": "Tuto stránku nelze přidat 😕",
        "description": "current website add button error"
    },
    "addCurrent": {
        "message": "Přidat aktuální webové stránky",
        "description": "current website add button"
    },
    "rateMozilla": {
        "message": "Hodnotit v Mozille",
        "description": "star rating bottom"
    },
    "openTitle": {
        "message": "Otevřít všechny weby",
        "description": "open button title"
    },
    "deleteTitle": {
        "message": "Smazat všechny webové stránky",
        "description": "reset button title"
    },
    "open": {
        "message": "Otevřít",
        "description": "open button"
    },
    "reset": {
        "message": "Obnovení",
        "description": "reset button"
    },
    "pinTabs": {
        "message": "Záložky s kolíky",
        "description": "pin tabs label"
    },
    "invalidURL": {
        "message": "Neplatné URL!",
        "description": "invalid url error message"
    },
    "openLater": {
        "message": "Zadejte webové stránky, které chcete otevřít později",
        "description": "open later label"
    },
    "description": {
        "message": "Automatické otevírání karet umožňuje otevřít více webových stránek najednou jedním kliknutím.",
        "description": "the addon's decription"
    }
}
