{
    "deleteAll": {
        "message": "Popa ne nyinaa",
        "description": "delete all button options page"
    },
    "restoreBackup": {
        "message": "San Fa Backup no si hɔ",
        "description": "restore URLs options page"
    },
    "goToMozilla": {
        "message": "Kɔ Mozilla hɔ",
        "description": "Go to Mozilla title"
    },
    "minusTitle": {
        "message": "Yi wɛbsaet hɔ",
        "description": "Minus icon hover text"
    },
    "plusTitle": {
        "message": "Fa wɛbsaet no ka ho",
        "description": "Plus icon hover text"
    },
    "currentURLtitle": {
        "message": "Fa wɛbsaet a wɔabue mprempren no ka ho",
        "description": "current website add button title"
    },
    "addCurrentError": {
        "message": "Wo ntumi mfa website yi nka ho 😕",
        "description": "current website add button error"
    },
    "addCurrent": {
        "message": "Fa wɛbsaet a ɛwɔ hɔ mprempren no ka ho",
        "description": "current website add button"
    },
    "rateMozilla": {
        "message": "Fa no to Mozilla so",
        "description": "star rating bottom"
    },
    "openTitle": {
        "message": "Bue wɛbsaet ahorow nyinaa",
        "description": "open button title"
    },
    "deleteTitle": {
        "message": "Popa wɛbsaet ahorow no nyinaa",
        "description": "reset button title"
    },
    "open": {
        "message": "Bue",
        "description": "open button"
    },
    "reset": {
        "message": "Fa si hɔ bio",
        "description": "reset button"
    },
    "pinTabs": {
        "message": "Pin tab ahorow",
        "description": "pin tabs label"
    },
    "invalidURL": {
        "message": "URL a enni mu!",
        "description": "invalid url error message"
    },
    "openLater": {
        "message": "Hyehyɛ wɛbsaet ahorow a wopɛ sɛ wubue akyiri yi no mu",
        "description": "open later label"
    },
    "addToATO": {
        "message": "Fa ka Auto Tab Opener ho",
        "description": "ATO button in context menu"
    },
    "backupDeleteSuccess": {
        "message": "Wɔapopa wɛbsaet ahorow no nyinaa yiye!",
        "description": "options page delete success message"
    },
    "backupSuccess": {
        "message": "Wo backup no asan aba yiye!",
        "description": "backup success message"
    },
    "emptyBackup": {
        "message": "Ɛnsɛ sɛ backup text area no yɛ nea hwee nni mu!",
        "description": "alert text if the user tries to import an empty backup"
    },
    "insertBackup": {
        "message": "Fa wo backup fael no mu nsɛm hyɛ ha…",
        "description": "placeholder of URL text area in addon options"
    },
    "pinTab": {
        "message": "Pin tab no",
        "description": "title of pin tab icon"
    },
    "deleteButtonTitle": {
        "message": "Yi wɛbsaet ahorow no nyinaa fi hɔ",
        "description": "delete URLs button title options page"
    },
    "saveButtonTitle": {
        "message": "Fa wɛbsaet ahorow a ɛwɔ atifi hɔ no sie",
        "description": "restore URLs button title options page"
    },
    "optionsBackup": {
        "message": "Kɔpi URL ahorow a edidi so yi kɔ fael a wɔakora so mu. San fa wo backup no ba denam wo backup fael no mu nsɛm a wobɛkyerɛw akɔ text area no so na afei woakliki “Restore URLs” so.",
        "description": "backup paragraph options page"
    },
    "description": {
        "message": "Auto Tab Opener ma wutumi bue wɛbsaet ahorow pii prɛko pɛ denam klik biako so.",
        "description": "the addon's decription"
    }
}
