{
    "invalidURL": {
        "message": "Nepravilen URL!",
        "description": "invalid url error message"
    },
    "pinTabs": {
        "message": "Zavihki z zatiči",
        "description": "pin tabs label"
    },
    "reset": {
        "message": "Ponastavite",
        "description": "reset button"
    },
    "open": {
        "message": "Odpri",
        "description": "open button"
    },
    "openTitle": {
        "message": "Odprite vsa spletišča",
        "description": "open button title"
    },
    "rateMozilla": {
        "message": "Ocenite ga v programu Mozilla",
        "description": "star rating bottom"
    },
    "addCurrentError": {
        "message": "Te spletne strani ne morete dodati 😕",
        "description": "current website add button error"
    },
    "currentURLtitle": {
        "message": "Dodajanje trenutno odprtega spletnega mesta",
        "description": "current website add button title"
    },
    "plusTitle": {
        "message": "Dodajte spletno mesto",
        "description": "Plus icon hover text"
    },
    "minusTitle": {
        "message": "Odstranite spletno mesto",
        "description": "Minus icon hover text"
    },
    "restoreBackup": {
        "message": "Obnovi varnostno kopijo",
        "description": "restore URLs options page"
    },
    "goToMozilla": {
        "message": "Pojdite v storitev Mozilla",
        "description": "Go to Mozilla title"
    },
    "pinTab": {
        "message": "Zavihek pin",
        "description": "title of pin tab icon"
    },
    "saveButtonTitle": {
        "message": "Odstrani vsa spletna mesta",
        "description": "restore URLs button title options page"
    },
    "emptyBackup": {
        "message": "Področje za varnostno besedilo ne sme biti prazno!",
        "description": "alert text if the user tries to import an empty backup"
    },
    "insertBackup": {
        "message": "Sem vstavite vsebino datoteke z varnostno kopijo…",
        "description": "placeholder of URL text area in addon options"
    },
    "backupDeleteSuccess": {
        "message": "Vse spletne strani so bile uspešno izbrisane!",
        "description": "options page delete success message"
    },
    "backupSuccess": {
        "message": "Vaša varnostna kopija je bila uspešno obnovljena!",
        "description": "backup success message"
    },
    "deleteButtonTitle": {
        "message": "Odstrani vsa spletna mesta",
        "description": "delete URLs button title options page"
    },
    "deleteAll": {
        "message": "Izbriši vse",
        "description": "delete all button options page"
    },
    "optionsBackup": {
        "message": "Kopirajte naslednje naslove URL v datoteko z varnostno kopijo. Obnovite varnostno kopijo tako, da kopirate vsebino datoteke z varnostno kopijo v besedilno območje in nato kliknete na \"Restore URLs\".",
        "description": "backup paragraph options page"
    },
    "description": {
        "message": "S samodejnim odpiranjem zavihkov lahko z enim klikom odprete več spletnih mest hkrati.",
        "description": "the addon's decription"
    },
    "openLater": {
        "message": "Vnesite spletna mesta, ki jih želite odpreti pozneje",
        "description": "open later label"
    },
    "deleteTitle": {
        "message": "Izbriši vsa spletišča",
        "description": "reset button title"
    },
    "addCurrent": {
        "message": "Dodajte aktualno spletno stran",
        "description": "current website add button"
    },
    "addToATO": {
        "message": "Dodaj v Auto Tab Opener",
        "description": "ATO button in context menu"
    }
}
