{
    "invalidURL": {
        "message": "URL tidak valid!",
        "description": "invalid url error message"
    },
    "reset": {
        "message": "Mengatur ulang",
        "description": "reset button"
    },
    "pinTabs": {
        "message": "Pin tab",
        "description": "pin tabs label"
    },
    "deleteTitle": {
        "message": "Hapus semua situs web",
        "description": "reset button title"
    },
    "rateMozilla": {
        "message": "Beri nilai pada Mozilla",
        "description": "star rating bottom"
    },
    "addCurrent": {
        "message": "Tambahkan situs web saat ini",
        "description": "current website add button"
    },
    "minusTitle": {
        "message": "Hapus situs web",
        "description": "Minus icon hover text"
    },
    "plusTitle": {
        "message": "Tambahkan situs web",
        "description": "Plus icon hover text"
    },
    "restoreBackup": {
        "message": "Kembalikan Cadangan",
        "description": "restore URLs options page"
    },
    "deleteAll": {
        "message": "Hapus semua",
        "description": "delete all button options page"
    },
    "saveButtonTitle": {
        "message": "Simpan situs web di atas",
        "description": "restore URLs button title options page"
    },
    "deleteButtonTitle": {
        "message": "Hapus semua situs web",
        "description": "delete URLs button title options page"
    },
    "insertBackup": {
        "message": "Masukkan konten file cadangan Anda di sini…",
        "description": "placeholder of URL text area in addon options"
    },
    "pinTab": {
        "message": "Tab pin",
        "description": "title of pin tab icon"
    },
    "emptyBackup": {
        "message": "Area teks cadangan tidak boleh kosong!",
        "description": "alert text if the user tries to import an empty backup"
    },
    "backupDeleteSuccess": {
        "message": "Semua situs web telah berhasil dihapus!",
        "description": "options page delete success message"
    },
    "description": {
        "message": "Auto tab Opener memungkinkan Anda membuka beberapa situs sekaligus dengan satu kali klik.",
        "description": "the addon's decription"
    },
    "openLater": {
        "message": "Masukkan situs web yang ingin Anda buka nanti",
        "description": "open later label"
    },
    "open": {
        "message": "Buka",
        "description": "open button"
    },
    "openTitle": {
        "message": "Buka semua situs web",
        "description": "open button title"
    },
    "addCurrentError": {
        "message": "Anda tidak dapat menambahkan situs web ini 😕",
        "description": "current website add button error"
    },
    "goToMozilla": {
        "message": "Pergi ke Mozilla",
        "description": "Go to Mozilla title"
    },
    "optionsBackup": {
        "message": "Salin URL berikut ke file cadangan. Pulihkan Cadangan Anda dengan menyalin konten file cadangan Anda ke area teks dan kemudian mengklik \"Pulihkan URL\".",
        "description": "backup paragraph options page"
    },
    "backupSuccess": {
        "message": "Cadangan Anda telah berhasil dipulihkan!",
        "description": "backup success message"
    },
    "currentURLtitle": {
        "message": "Tambahkan situs web yang sedang dibuka",
        "description": "current website add button title"
    },
    "addToATO": {
        "message": "Tambahkan keAuto Tab Opener",
        "description": "ATO button in context menu"
    }
}
